{
	"groups":[
		{
  			"sourceType": "cz.ifoodorder.userservice.keycloak.KeycloakApiProperties",
  			"type": "cz.ifoodorder.userservice.keycloak.KeycloakApiProperties",
	  		"name": "ifoodorder.keycloak",
	  		"description": "Configuration for admin access to Keycloak'"
  		}
	],
	"properties": [
		{
  			"sourceType": "cz.ifoodorder.userservice.keycloak.KeycloakApiProperties",
  			"type": "java.lang.String",
	  		"name": "ifoodorder.keycloak.service-name",
	  		"description": "Client name"
  		},
		{
  			"sourceType": "cz.ifoodorder.userservice.keycloak.KeycloakApiProperties",
  			"type": "java.lang.String",
	  		"name": "ifoodorder.keycloak.service-secret",
	  		"description": "Client secret"
  		},
		{
  			"sourceType": "cz.ifoodorder.userservice.keycloak.KeycloakApiProperties",
  			"type": "java.lang.String",
	  		"name": "ifoodorder.keycloak.username",
	  		"description": "Admin username"
  		},
		{
  			"sourceType": "cz.ifoodorder.userservice.keycloak.KeycloakApiProperties",
  			"type": "java.lang.String",
	  		"name": "ifoodorder.keycloak.password",
	  		"description": "Admin password"
  		}
	]
}